tutorial3/Ripple_Adder/simulation/qsim/Ripple_Adder.msim.vcd
$comment
	File created using the following command:
		vcd file Ripple_Adder.msim.vcd -direction
$end
$date
	Thu Feb 04 11:50:56 2021
$end
$version
	ModelSim Version 10.3c
$end
$timescale
	1ps
$end

$scope module Ripple_Adder_vlg_vec_tst $end
$var reg 4 ! A [3:0] $end
$var reg 4 " B [3:0] $end
$var reg 1 # C0 $end
$var wire 1 $ C4 $end
$var wire 1 % S [3] $end
$var wire 1 & S [2] $end
$var wire 1 ' S [1] $end
$var wire 1 ( S [0] $end
$var wire 1 ) sampler $end

$scope module i1 $end
$var wire 1 * gnd $end
$var wire 1 + vcc $end
$var wire 1 , unknown $end
$var tri1 1 - devclrn $end
$var tri1 1 . devpor $end
$var tri1 1 / devoe $end
$var wire 1 0 S[0]~output_o $end
$var wire 1 1 S[1]~output_o $end
$var wire 1 2 S[2]~output_o $end
$var wire 1 3 S[3]~output_o $end
$var wire 1 4 C4~output_o $end
$var wire 1 5 A[0]~input_o $end
$var wire 1 6 C0~input_o $end
$var wire 1 7 B[0]~input_o $end
$var wire 1 8 FA1|S~combout $end
$var wire 1 9 B[1]~input_o $end
$var wire 1 : A[1]~input_o $end
$var wire 1 ; FA2|S~combout $end
$var wire 1 < A[2]~input_o $end
$var wire 1 = FA2|Cout~0_combout $end
$var wire 1 > B[2]~input_o $end
$var wire 1 ? FA3|S~combout $end
$var wire 1 @ B[3]~input_o $end
$var wire 1 A A[3]~input_o $end
$var wire 1 B FA4|S~combout $end
$var wire 1 C FA4|Cout~0_combout $end
$upscope $end
$upscope $end
$enddefinitions $end
#0
$dumpvars
b111 !
b1101 "
0#
1$
0(
0'
1&
0%
x)
0*
1+
x,
1-
1.
1/
00
01
12
03
14
15
06
17
08
09
1:
0;
1<
1=
1>
1?
1@
0A
0B
1C
$end
#10000
b101 "
b1 "
b0 "
07
0>
0@
0)
0=
0C
1B
0?
1;
18
10
11
02
13
04
1(
1'
0&
1%
0$
0B
1?
12
03
1&
0%
#20000
b11 !
b1 !
b10 "
b110 "
19
1>
0:
0<
1)
#30000
b101 !
b111 !
b10 "
0>
1:
1<
0)
1=
0;
01
0'
1B
0?
02
13
0&
1%
#40000
b1111 !
b1011 !
b1001 !
0:
0<
1A
1)
0=
1?
1;
11
12
1'
1&
0?
02
0&
#50000
b1000 !
b0 !
05
0A
0)
0B
08
00
03
0(
0%
#60000
b1010 "
b1011 "
b1001 "
b1101 "
b1000 !
1A
17
09
1>
1@
1)
1C
1?
0;
18
10
01
12
14
1(
0'
1&
1$
#70000
b1010 !
b1011 !
b101 "
b111 "
b11 "
b11 !
19
0>
0@
15
1:
0A
0)
1=
0C
1;
08
0?
02
00
11
04
0&
0(
1'
0$
1?
12
1&
#80000
b111 !
b110 !
05
1<
1)
1B
0?
0;
18
10
01
02
13
1(
0'
0&
1%
#90000
b111 "
b10 !
b11 !
15
0<
1>
0)
1;
08
00
11
0(
1'
#100000
b110 "
b100 "
b0 "
b10 !
05
07
09
0>
1)
0=
0B
1?
12
03
1&
0%
0?
02
0&
#110000
b1010 !
b1110 !
b1 "
17
1<
1A
0)
1B
1?
18
10
12
13
1(
1&
1%
#120000
b1001 "
b1011 "
b1111 "
b1111 !
b111 !
15
0A
19
1>
1@
1)
1=
1C
0B
0?
08
00
02
03
14
0(
0&
0%
1$
1?
12
1&
#130000
b11 !
b1110 "
b110 "
b1011 !
07
0@
0<
1A
0)
0?
0;
18
10
01
02
1(
0'
0&
#140000
b100 "
b1010 !
b10 !
05
0A
09
1)
0=
1;
0C
1B
08
00
13
04
11
0(
1%
0$
1'
0B
1?
12
03
1&
0%
#150000
b110 "
b11 !
b1011 !
15
1A
19
0)
1=
0;
1B
18
10
13
01
1(
1%
0'
1C
0B
0?
02
03
14
0&
0%
1$
#160000
b1001 !
b10 "
b1101 !
b1010 "
b1100 !
0>
1@
05
0:
1<
1)
0=
1B
1;
08
00
11
13
0(
1'
1%
0B
1?
12
03
1&
0%
#170000
b1000 "
b1100 "
b1101 !
15
09
1>
0)
1B
0?
0;
18
10
01
02
13
1(
0'
0&
1%
#180000
b1101 "
b1001 !
b101 "
b111 "
0<
17
19
0@
1)
1=
0C
08
1?
12
00
04
1&
0(
0$
1C
0B
0?
02
03
14
0&
0%
1$
#190000
b1 !
b11 "
b0 !
b1011 "
0>
1@
05
0A
0)
0=
0C
1B
1;
18
1?
12
10
11
13
04
1&
1(
1'
1%
0$
0?
02
0&
#200000
b10 !
b1010 "
b1000 "
b0 "
07
09
0@
1:
1)
0B
08
00
03
0(
0%
#210000
b110 !
b111 !
b1 "
b11 "
17
19
15
1<
0)
1=
1?
12
1&
1B
0?
02
13
0&
1%
#220000
b1111 !
b1101 !
b1011 "
b1100 !
b1010 "
07
1@
05
0:
1A
1)
0=
1C
14
1$
0B
1?
12
03
1&
0%
#230000
b1110 "
b1110 !
1:
1>
0)
1=
1B
0?
0;
01
02
13
0'
0&
1%
1?
12
1&
#240000
b1010 !
b110 "
b111 "
b11 "
17
0>
0@
0<
1)
0C
18
10
04
1(
0$
#250000
b1 "
b1011 !
b101 "
15
09
1>
0)
1C
0B
0?
08
00
02
03
14
0(
0&
0%
1$
#260000
b1111 !
b100 "
b110 "
07
19
1<
1)
1?
18
10
12
1(
1&
#270000
b111 !
b10 "
b11 !
0>
0<
0A
0)
0C
04
0$
#280000
b1 !
b1010 "
b0 !
b1011 "
b1000 !
b1111 "
b1100 !
17
1>
1@
05
0:
1<
1A
1)
0=
1C
1B
1;
11
13
14
1'
1%
1$
0?
02
0&
#290000
b1110 !
b1111 !
b1110 "
b111 !
b1010 "
07
0>
15
1:
0A
0)
1=
0C
0;
1?
12
01
04
1&
0'
0$
1C
0B
0?
02
03
14
0&
0%
1$
#300000
b10 "
b110 !
05
0@
1)
0C
1B
08
00
13
04
0(
1%
0$
#310000
b0 "
b10 !
b1 "
b1001 "
b11 !
15
0<
17
09
1@
0)
1?
12
1&
#320000
b1 !
b1001 !
b1101 "
b1111 "
b1101 !
b1110 "
b110 "
b1100 !
07
19
1>
0@
05
0:
1<
1A
1)
0=
1C
0B
1;
11
03
14
1'
0%
1$
0?
02
0&
#330000
b10 "
b0 "
b1000 !
b1000 "
b1001 !
15
0<
09
0>
1@
0)
0;
18
10
01
1(
0'
#340000
b1011 !
b11 !
b111 !
1:
1<
0A
1)
0C
1B
1?
1;
11
12
13
04
1'
1&
1%
0$
#350000
b1001 "
b1011 "
b11 "
b101 !
b1 !
0:
0<
17
19
0@
0)
1=
0B
0;
08
0?
02
00
01
03
0&
0(
0'
0%
1?
12
1&
#360000
b111 "
b0 !
b1000 !
b110 "
b1010 !
b1110 !
05
1:
1<
1A
07
1>
1)
1C
14
1$
#370000
b100 "
b110 !
b100 !
b0 !
0:
0<
0A
09
0)
0=
0C
1B
0?
02
13
04
0&
1%
0$
0B
1?
12
03
1&
0%
#380000
b1100 "
b1000 "
b1 !
b1010 "
b11 !
15
1:
19
0>
1@
1)
1=
1B
0?
18
10
02
13
1(
0&
1%
1?
12
1&
#390000
b1011 "
b111 !
1<
17
0)
1;
08
1C
0B
0?
02
03
14
00
11
0&
0%
1$
0(
1'
#400000
b11 "
b1 "
b0 "
07
09
0@
1)
0=
0C
1B
18
10
13
04
1(
1%
0$
0B
1?
12
03
1&
0%
#410000
b110 !
b10 !
b1000 "
b1010 "
19
1@
05
0<
0)
1=
1B
0?
0;
08
00
01
02
13
0(
0'
0&
1%
1?
12
1&
#420000
b1010 !
b1110 !
b10 "
0@
1<
1A
1)
1C
0B
0?
02
03
14
0&
0%
1$
#430000
b0 "
b110 !
0A
09
0)
0=
1;
0C
1B
13
04
11
1%
0$
1'
0B
1?
12
03
1&
0%
#440000
b1 "
b111 !
b11 !
b11 "
b1011 !
15
0<
1A
17
19
1)
1=
1B
0?
02
13
0&
1%
1?
12
1&
#450000
b1001 !
b1011 "
b1010 "
b1101 !
b101 !
07
1@
0:
1<
0A
0)
0=
1C
0B
0?
18
10
02
03
14
1(
0&
0%
1$
0C
1B
1?
12
13
04
1&
1%
0$
#460000
b1011 "
b1 !
b1001 !
0<
1A
17
1)
1=
0;
08
1C
0B
0?
02
03
14
00
01
0&
0%
1$
0(
0'
1?
12
1&
#470000
b1111 "
1>
0)
1B
0?
02
13
0&
1%
#480000
b1101 "
b1100 "
b1101 !
b101 !
b1000 "
1<
0A
07
09
0>
1)
0=
0B
18
10
03
1(
0%
0C
1B
1?
12
13
04
1&
1%
0$
#490000
b100 !
b0 "
b10 "
b1100 !
b110 "
19
1>
0@
05
1A
0)
1C
0B
1;
08
0?
02
00
11
03
14
0&
0(
1'
0%
1$
#500000
b1110 !
b111 "
b1010 !
b1111 "
b1101 "
b10 !
17
09
1@
1:
0<
0A
1)
0C
1B
1?
18
10
12
13
04
1(
1&
1%
0$
#510000
b0 !
b1111 "
19
0:
0)
#520000
b100 !
b1101 "
09
1<
1)
1C
0B
0?
0;
01
02
03
14
0'
0&
0%
1$
#530000
b1001 "
b0 !
b1011 "
0<
19
0>
0)
0C
1B
1;
11
13
04
1'
1%
0$
#540000
b11 "
b1000 !
b1010 !
b111 "
b1110 !
b101 "
1:
1<
1A
09
1>
0@
1)
1C
0B
03
14
0%
1$
#550000
b100 "
b110 !
b100 !
0:
0A
07
0)
0;
08
0C
1B
13
04
00
01
1%
0$
0(
0'
#560000
b0 !
b110 "
b1000 !
b1010 !
19
1:
0<
1A
1)
1=
1?
12
1&
1C
0B
0?
02
03
14
0&
0%
1$
#570000
b1011 !
b1110 "
b1111 "
b11 !
b1 !
17
1@
15
0:
0A
0)
#580000
b101 !
b1101 "
b100 !
09
05
1<
1)
0=
1?
18
10
12
1(
1&
0?
02
0&
#590000
b110 !
b111 !
15
1:
0)
1=
08
00
0(
1?
12
1&
#600000
b1001 "
b1 "
b101 !
0:
0>
0@
1)
0=
0C
1B
0?
1;
11
02
13
04
1'
0&
1%
0$
0B
1?
12
03
1&
0%
#610000
b0 "
b1101 !
b10 "
b110 "
b1110 "
b1111 !
1:
1A
07
19
1>
1@
0)
1=
1C
1B
0?
0;
18
10
01
02
13
14
1(
0'
0&
1%
1$
1?
12
1&
#620000
b1011 !
b1111 "
b1011 "
17
0>
0<
1)
0B
1;
08
00
11
03
0(
1'
0%
#630000
b1001 "
b1 "
b1001 !
b0 "
b100 "
0:
07
09
1>
0@
0)
0=
0?
0;
18
10
01
02
1(
0'
0&
0C
1B
1?
12
13
04
1&
1%
0$
#640000
b1000 !
b110 "
b1110 "
19
1@
05
1)
1;
08
1C
0B
03
14
00
11
0%
1$
0(
1'
#650000
b1100 !
b1110 !
b1111 "
b1011 "
17
0>
1:
1<
0)
1=
0;
18
10
01
1(
0'
1B
0?
02
13
0&
1%
#660000
b110 !
b111 !
b11 "
b10 "
b110 "
07
1>
0@
15
0A
1)
0C
1?
12
04
1&
0$
#670000
b100 "
b11 !
b10 !
b1100 "
05
0<
09
1@
0)
0=
1C
0B
1;
0?
08
00
02
11
03
14
0(
0&
1'
0%
1$
0C
1B
1?
12
13
04
1&
1%
0$
#680000
b1000 "
0>
1)
0?
02
0&
#690000
b0 !
b1010 "
b100 !
19
0:
1<
0)
1?
12
1&
#700000
b101 !
b1110 "
b1100 "
09
1>
15
1)
0;
18
1C
0B
0?
02
03
14
10
01
0&
0%
1$
1(
0'
#710000
b1101 !
b1101 "
b1111 !
b1011 !
b1010 !
b1111 "
17
19
05
1:
0<
1A
0)
1=
1?
12
1&
1B
0?
02
13
0&
1%
#720000
b1011 "
b10 !
b0 !
b1 !
b1001 "
15
0:
0A
09
0>
1)
0=
0C
1?
1;
08
00
11
12
04
0(
1'
1&
0$
0?
02
0&
#730000
b1000 "
b1100 "
b1001 !
b1110 "
1A
07
19
1>
0)
1C
0B
1?
18
10
12
03
14
1(
1&
0%
1$
#740000
b110 "
b1101 !
b1111 !
b1110 !
b110 !
05
1:
1<
0A
0@
1)
1=
0C
1B
0?
0;
08
00
01
02
13
04
0(
0'
0&
1%
0$
1?
12
1&
#750000
b10 !
b0 !
b1000 !
0:
0<
1A
0)
0=
1C
0B
0?
1;
11
02
03
14
1'
0&
0%
1$
0C
1B
1?
12
13
04
1&
1%
0$
#760000
b100 "
b1001 !
b1 !
15
0A
09
1)
0;
0B
18
10
03
01
1(
0%
0'
#770000
b1100 "
b1001 !
1A
1@
0)
1C
14
1$
#780000
b1101 "
b1101 !
b1111 !
b101 "
1:
1<
17
0@
1)
1=
08
0?
02
00
0&
0(
1?
12
1&
#790000
b1 "
b1110 !
b1010 !
b1001 "
05
0<
0>
1@
0)
0=
1;
18
10
11
1(
1'
0?
02
0&
#800000
b1000 "
b1011 !
b1111 !
b0 "
15
1<
07
0@
1)
0C
1B
1?
12
13
04
1&
1%
0$
#810000
b10 "
19
0)
1=
0;
01
0'
1C
0B
0?
02
03
14
0&
0%
1$
#820000
b111 !
b110 !
b0 "
09
05
0A
1)
0=
0C
1B
1;
08
00
11
13
04
0(
1'
1%
0$
0B
1?
12
03
1&
0%
#830000
b10 !
0<
0)
0?
02
0&
#840000
b0 !
b1000 "
b1 !
b101 !
1@
15
0:
1<
1)
1B
1?
0;
18
10
01
12
13
1(
0'
1&
1%
#850000
b1100 "
b1101 "
b1101 !
b1111 "
b111 "
b1100 !
05
1A
17
19
1>
0@
0)
1C
0B
0?
1;
11
02
03
14
1'
0&
0%
1$
#860000
b1110 !
b1010 !
b110 "
b1011 !
07
15
1:
0<
1)
1=
0C
1B
1?
0;
01
12
13
04
0'
1&
1%
0$
1C
0B
0?
02
03
14
0&
0%
1$
#870000
b10 "
b0 "
b1000 "
09
0>
1@
0)
0=
1?
1;
11
12
1'
1&
0?
02
0&
#880000
b11 !
b111 !
b110 !
b0 "
0@
05
1<
0A
1)
0C
1?
08
00
12
04
0(
1&
0$
#890000
b1 "
b111 !
15
17
0)
1=
0;
01
0'
1B
0?
02
13
0&
1%
#900000
b101 !
b11 "
b1101 !
b10 "
07
19
0:
1A
1)
0=
1C
0B
1;
18
10
11
03
14
1(
1'
0%
1$
0C
1B
1?
12
13
04
1&
1%
0$
#910000
b0 "
09
0)
0;
01
0'
#920000
b100 "
b1100 "
b1111 !
1:
1>
1@
1)
1C
0?
1;
11
02
14
1'
0&
1$
#930000
b1011 !
b11 !
b100 "
0@
0<
0A
0)
0C
0B
1?
12
03
04
1&
0%
0$
#940000
b101 "
b111 "
b1 !
b101 !
b1111 "
0:
1<
17
19
1@
1)
1=
1C
0;
08
0?
02
00
01
14
0&
0(
0'
1$
1?
12
1&
#950000
b1110 "
b1100 "
07
09
0)
0=
18
10
1(
0?
02
0&
#960000
b100 !
b1100 !
b100 "
b101 "
17
0@
05
1A
1)
#970000
b1000 !
b1101 "
b1100 "
07
1@
0<
0)
1?
08
00
12
0(
1&
#980000
b1010 !
b1110 "
b1110 !
b110 "
b111 "
17
19
0@
1:
1<
1)
1=
0?
18
10
02
1(
0&
1?
12
1&
#990000
b1111 !
b1101 !
b101 "
09
15
0:
0)
0=
1;
08
00
11
0(
1'
0?
02
0&
