tutorial4/simulation/qsim/Tutorial4.msim.vcd
$comment
	File created using the following command:
		vcd file Tutorial4.msim.vcd -direction
$end
$date
	Thu Feb 04 09:41:50 2021
$end
$version
	ModelSim Version 10.3c
$end
$timescale
	1ps
$end

$scope module Tutorial4_vlg_vec_tst $end
$var reg 1 ! A $end
$var reg 1 " B $end
$var reg 1 # C $end
$var wire 1 $ O $end
$var wire 1 % sampler $end

$scope module i1 $end
$var wire 1 & gnd $end
$var wire 1 ' vcc $end
$var wire 1 ( unknown $end
$var tri1 1 ) devclrn $end
$var tri1 1 * devpor $end
$var tri1 1 + devoe $end
$var wire 1 , O~output_o $end
$var wire 1 - A~input_o $end
$var wire 1 . C~input_o $end
$var wire 1 / B~input_o $end
$var wire 1 0 inst2~0_combout $end
$upscope $end
$upscope $end
$enddefinitions $end
#0
$dumpvars
0!
1"
0#
0$
x%
0&
1'
x(
1)
1*
1+
0,
0-
0.
1/
00
$end
#5000
0"
1#
0/
1.
0%
#10000
0#
0.
1%
#15000
1#
1.
0%
#20000
1!
1-
1%
#25000
1"
1/
0%
10
1,
1$
#35000
0#
0!
0.
0-
1%
00
0,
0$
#40000
0"
1#
0/
1.
0%
#45000
1"
1/
1%
10
1,
1$
#50000
0"
0/
0%
00
0,
0$
#55000
0#
1"
0.
1/
1%
#60000
1#
1.
0%
10
1,
1$
#65000
1!
1-
1%
#70000
0"
0!
0/
0-
0%
00
0,
0$
#75000
1"
1!
1/
1-
1%
10
1,
1$
#80000
0!
0-
0%
#90000
1!
1-
1%
#95000
0!
0-
0%
#100000
0#
1!
0.
1-
1%
#105000
1#
1.
0%
#110000
0"
0#
0/
0.
1%
#115000
0!
1#
0-
1.
0%
00
0,
0$
#120000
1"
1!
1/
1-
1%
10
1,
1$
#125000
0#
0"
0.
0/
0%
#130000
0!
1"
0-
1/
1%
00
0,
0$
#135000
1#
1!
0"
1.
1-
0/
0%
#140000
0!
0-
1%
#145000
1"
1/
0%
10
1,
1$
#150000
0"
0/
1%
00
0,
0$
#155000
1!
1"
1-
1/
0%
10
1,
1$
#160000
0#
0!
0.
0-
1%
00
0,
0$
#165000
0"
0/
0%
#175000
1#
1!
1.
1-
1%
#180000
0!
0-
0%
#190000
0#
1!
0.
1-
1%
10
1,
1$
#195000
0!
0-
0%
00
0,
0$
#200000
1"
1#
1/
1.
1%
10
1,
1$
#210000
1!
0"
1-
0/
0%
00
0,
0$
#220000
0!
0-
1%
#225000
0#
1"
1!
0.
1/
1-
0%
10
1,
1$
#235000
1#
1.
1%
#240000
0"
0#
0/
0.
0%
#245000
1#
1.
1%
00
0,
0$
#250000
0!
1"
0#
0-
1/
0.
0%
#255000
1!
1-
1%
10
1,
1$
#260000
1#
1.
0%
#265000
0"
0/
1%
00
0,
0$
#270000
0!
1"
0-
1/
0%
10
1,
1$
#275000
0#
1!
0.
1-
1%
#280000
1#
0!
1.
0-
0%
#285000
0"
0#
1!
0/
0.
1-
1%
#300000
1"
1#
1/
1.
0%
#305000
0"
0#
0/
0.
1%
#310000
1#
1.
0%
00
0,
0$
#320000
0!
0-
1%
#325000
1!
1-
0%
#330000
1"
1/
1%
10
1,
1$
#335000
0"
0/
0%
00
0,
0$
#340000
0!
0-
1%
#345000
0#
1"
0.
1/
0%
#350000
1!
0"
1-
0/
1%
10
1,
1$
#355000
1#
0!
1.
0-
0%
00
0,
0$
#360000
1!
1-
1%
#365000
1"
1/
0%
10
1,
1$
#370000
0#
0"
0.
0/
1%
#375000
1#
1"
1.
1/
0%
#380000
0#
0.
1%
#390000
0!
0"
0-
0/
0%
00
0,
0$
#395000
1!
1-
1%
10
1,
1$
#400000
0!
0-
0%
00
0,
0$
#405000
1#
1.
1%
#410000
1"
1/
0%
10
1,
1$
#415000
1!
1-
1%
#420000
0#
0"
0!
0.
0/
0-
0%
00
0,
0$
#430000
1#
1.
1%
#435000
0#
0.
0%
#440000
1"
1!
1#
1/
1-
1.
1%
10
1,
1$
#445000
0!
0-
0%
#450000
0#
0.
1%
00
0,
0$
#455000
0"
1!
0/
1-
0%
10
1,
1$
#460000
1"
0!
1/
0-
1%
00
0,
0$
#465000
1#
0"
1!
1.
0/
1-
0%
#470000
0#
1"
0.
1/
1%
10
1,
1$
#475000
0!
1#
0"
0-
1.
0/
0%
00
0,
0$
#490000
1!
1"
1-
1/
1%
10
1,
1$
#495000
0"
0/
0%
00
0,
0$
#500000
0#
1"
0.
1/
1%
10
1,
1$
#505000
0!
1#
0-
1.
0%
#510000
0"
1!
0/
1-
1%
00
0,
0$
#515000
0#
0.
0%
10
1,
1$
#520000
1"
1#
1/
1.
1%
#525000
0"
0/
0%
00
0,
0$
#530000
0!
0#
0-
0.
1%
#540000
1#
1.
0%
#545000
1"
0#
1/
0.
1%
#550000
1!
0"
1#
1-
0/
1.
0%
#565000
0!
1"
0#
0-
1/
0.
1%
#570000
0"
1#
0/
1.
0%
#575000
1"
1/
1%
10
1,
1$
#580000
1!
1-
0%
#585000
0!
0-
1%
#590000
0"
1!
0/
1-
0%
00
0,
0$
#595000
1"
0!
1/
0-
1%
10
1,
1$
#600000
0"
1!
0/
1-
0%
00
0,
0$
#605000
0#
0.
1%
10
1,
1$
#610000
0!
0-
0%
00
0,
0$
#615000
1"
1!
1/
1-
1%
10
1,
1$
#625000
1#
0!
1.
0-
0%
#630000
1!
1-
1%
#635000
0#
0!
0.
0-
0%
00
0,
0$
#645000
0"
1#
1!
0/
1.
1-
1%
#650000
1"
0#
1/
0.
0%
10
1,
1$
#655000
0!
0"
1#
0-
0/
1.
1%
00
0,
0$
#660000
1!
0#
1-
0.
0%
10
1,
1$
#665000
1"
0!
1/
0-
1%
00
0,
0$
#670000
0"
0/
0%
#675000
1#
1.
1%
#680000
1!
1"
1-
1/
0%
10
1,
1$
#685000
0#
0!
0"
0.
0-
0/
1%
00
0,
0$
#690000
1#
1.
0%
#695000
0#
0.
1%
#700000
1!
1"
1-
1/
0%
10
1,
1$
#705000
1#
1.
1%
#710000
0!
0#
0-
0.
0%
00
0,
0$
#715000
0"
1#
0/
1.
1%
#720000
1!
1"
1-
1/
0%
10
1,
1$
#725000
0#
0"
0.
0/
1%
#730000
0!
0-
0%
00
0,
0$
#735000
1!
1-
1%
10
1,
1$
#740000
1"
0!
1/
0-
0%
00
0,
0$
#745000
1#
0"
1!
1.
0/
1-
1%
#750000
1"
1/
0%
10
1,
1$
#755000
0#
0!
0.
0-
1%
00
0,
0$
#765000
1!
1-
0%
10
1,
1$
#770000
1#
1.
1%
#775000
0!
0#
0-
0.
0%
00
0,
0$
#780000
1!
1#
1-
1.
1%
10
1,
1$
#785000
0!
0-
0%
#790000
0#
0.
1%
00
0,
0$
#795000
1!
1-
0%
10
1,
1$
#800000
0"
0!
0/
0-
1%
00
0,
0$
#810000
1"
1/
0%
#815000
1#
1.
1%
10
1,
1$
#820000
0"
0/
0%
00
0,
0$
#825000
0#
1"
0.
1/
1%
#830000
1#
1.
0%
10
1,
1$
#835000
1!
0"
0#
1-
0/
0.
1%
#840000
1"
1/
0%
#845000
0!
0-
1%
00
0,
0$
#850000
1#
0"
1!
1.
0/
1-
0%
#855000
0!
0-
1%
#860000
1"
1!
1/
1-
0%
10
1,
1$
#865000
0#
0"
0!
0.
0/
0-
1%
00
0,
0$
#875000
1"
1!
1/
1-
0%
10
1,
1$
#880000
1#
0"
1.
0/
1%
00
0,
0$
#885000
0!
0#
0-
0.
0%
#890000
1!
1#
1-
1.
1%
#900000
1"
0#
1/
0.
0%
10
1,
1$
#905000
0"
1#
0/
1.
1%
00
0,
0$
#910000
1"
1/
0%
10
1,
1$
#920000
0#
0"
0.
0/
1%
#925000
0!
1"
0-
1/
0%
00
0,
0$
#930000
1!
0"
1-
0/
1%
10
1,
1$
#935000
0!
0-
0%
00
0,
0$
#940000
1#
1.
1%
#945000
1!
1-
0%
#950000
1"
1/
1%
10
1,
1$
#955000
0#
0"
0.
0/
0%
#960000
1#
1"
1.
1/
1%
#965000
0"
0/
0%
00
0,
0$
#970000
0!
0-
1%
#980000
0#
1"
0.
1/
0%
#985000
0"
0/
1%
#990000
1!
1-
0%
10
1,
1$
#995000
1#
1"
1.
1/
1%
