tutorial7/simulation/qsim/Half_Adder.msim.vcd
$comment
	File created using the following command:
		vcd file Half_Adder.msim.vcd -direction
$end
$date
	Fri Feb 12 09:12:58 2021
$end
$version
	ModelSim Version 10.3c
$end
$timescale
	1ps
$end

$scope module HA_vlg_vec_tst $end
$var reg 1 ! X $end
$var reg 1 " Y $end
$var wire 1 # C $end
$var wire 1 $ S $end
$var wire 1 % sampler $end

$scope module i1 $end
$var wire 1 & gnd $end
$var wire 1 ' vcc $end
$var wire 1 ( unknown $end
$var tri1 1 ) devclrn $end
$var tri1 1 * devpor $end
$var tri1 1 + devoe $end
$var wire 1 , S~output_o $end
$var wire 1 - C~output_o $end
$var wire 1 . X~input_o $end
$var wire 1 / Y~input_o $end
$var wire 1 0 S~0_combout $end
$var wire 1 1 C~0_combout $end
$upscope $end
$upscope $end
$enddefinitions $end
#0
$dumpvars
1!
0"
0#
1$
x%
0&
1'
x(
1)
1*
1+
1,
0-
1.
0/
10
01
$end
#5000
0!
1"
0.
1/
0%
#15000
0"
0/
1%
00
0,
0$
#20000
1!
1.
0%
10
1,
1$
#25000
0!
0.
1%
00
0,
0$
#30000
1"
1!
1/
1.
0%
11
1-
1#
#35000
0"
0/
1%
01
10
1,
0-
1$
0#
#45000
0!
0.
0%
00
0,
0$
#50000
1"
1/
1%
10
1,
1$
#55000
1!
1.
0%
11
00
0,
1-
0$
1#
#60000
0"
0!
0/
0.
1%
01
0-
0#
#65000
1!
1.
0%
10
1,
1$
#70000
0!
0.
1%
00
0,
0$
#85000
1"
1/
0%
10
1,
1$
#90000
1!
0"
1.
0/
1%
#95000
1"
1/
0%
11
00
0,
1-
0$
1#
#100000
0!
0"
0.
0/
1%
01
0-
0#
#105000
1!
1"
1.
1/
0%
11
1-
1#
#120000
0"
0/
1%
01
10
1,
0-
1$
0#
#125000
1"
1/
0%
11
00
0,
1-
0$
1#
#135000
0!
0.
1%
01
10
1,
0-
1$
0#
#140000
0"
1!
0/
1.
0%
#150000
0!
0.
1%
00
0,
0$
#165000
1!
1.
0%
10
1,
1$
#170000
1"
0!
1/
0.
1%
#175000
1!
1.
0%
11
00
0,
1-
0$
1#
#185000
0!
0.
1%
01
10
1,
0-
1$
0#
#190000
0"
0/
0%
00
0,
0$
#200000
1!
1"
1.
1/
1%
11
1-
1#
#205000
0!
0"
0.
0/
0%
01
0-
0#
#220000
1!
1"
1.
1/
1%
11
1-
1#
#225000
0"
0/
0%
01
10
1,
0-
1$
0#
#230000
0!
0.
1%
00
0,
0$
#235000
1"
1/
0%
10
1,
1$
#240000
0"
0/
1%
00
0,
0$
#245000
1"
1/
0%
10
1,
1$
#250000
1!
1.
1%
11
00
0,
1-
0$
1#
#255000
0"
0/
0%
01
10
1,
0-
1$
0#
#265000
0!
1"
0.
1/
1%
#270000
1!
0"
1.
0/
0%
#275000
0!
1"
0.
1/
1%
#285000
1!
1.
0%
11
00
0,
1-
0$
1#
#290000
0"
0!
0/
0.
1%
01
0-
0#
#305000
1!
1.
0%
10
1,
1$
#310000
0!
0.
1%
00
0,
0$
#315000
1!
1.
0%
10
1,
1$
#320000
1"
0!
1/
0.
1%
#325000
0"
0/
0%
00
0,
0$
#330000
1!
1"
1.
1/
1%
11
1-
1#
#335000
0!
0.
0%
01
10
1,
0-
1$
0#
#340000
0"
1!
0/
1.
1%
#345000
1"
0!
1/
0.
0%
#350000
0"
1!
0/
1.
1%
#370000
1"
1/
0%
11
00
0,
1-
0$
1#
#375000
0!
0.
1%
01
10
1,
0-
1$
0#
#385000
0"
0/
0%
00
0,
0$
#390000
1!
1"
1.
1/
1%
11
1-
1#
#395000
0"
0/
0%
01
10
1,
0-
1$
0#
#400000
0!
1"
0.
1/
1%
#410000
0"
0/
0%
00
0,
0$
#415000
1!
1.
1%
10
1,
1$
#420000
1"
0!
1/
0.
0%
#425000
0"
1!
0/
1.
1%
#430000
1"
1/
0%
11
00
0,
1-
0$
1#
#435000
0!
0"
0.
0/
1%
01
0-
0#
#460000
1!
1"
1.
1/
0%
11
1-
1#
#470000
0"
0/
1%
01
10
1,
0-
1$
0#
#475000
1"
1/
0%
11
00
0,
1-
0$
1#
#480000
0!
0.
1%
01
10
1,
0-
1$
0#
#490000
0"
1!
0/
1.
0%
#495000
1"
1/
1%
11
00
0,
1-
0$
1#
#500000
0!
0.
0%
01
10
1,
0-
1$
0#
#505000
0"
1!
0/
1.
1%
#510000
1"
0!
1/
0.
0%
#515000
0"
0/
1%
00
0,
0$
#520000
1!
1"
1.
1/
0%
11
1-
1#
#530000
0"
0/
1%
01
10
1,
0-
1$
0#
#535000
1"
1/
0%
11
00
0,
1-
0$
1#
#540000
0"
0/
1%
01
10
1,
0-
1$
0#
#555000
0!
0.
0%
00
0,
0$
#560000
1!
1.
1%
10
1,
1$
#575000
0!
0.
0%
00
0,
0$
#580000
1"
1!
1/
1.
1%
11
1-
1#
#585000
0!
0.
0%
01
10
1,
0-
1$
0#
#590000
1!
1.
1%
11
00
0,
1-
0$
1#
#595000
0!
0.
0%
01
10
1,
0-
1$
0#
#605000
0"
1!
0/
1.
1%
#610000
1"
0!
1/
0.
0%
#620000
0"
1!
0/
1.
1%
#635000
0!
0.
0%
00
0,
0$
#640000
1"
1!
1/
1.
1%
11
1-
1#
#645000
0"
0!
0/
0.
0%
01
0-
0#
#650000
1"
1/
1%
10
1,
1$
#655000
1!
1.
0%
11
00
0,
1-
0$
1#
#660000
0!
0.
1%
01
10
1,
0-
1$
0#
#665000
0"
0/
0%
00
0,
0$
#670000
1!
1.
1%
10
1,
1$
#675000
1"
1/
0%
11
00
0,
1-
0$
1#
#680000
0!
0"
0.
0/
1%
01
0-
0#
#685000
1!
1.
0%
10
1,
1$
#690000
0!
0.
1%
00
0,
0$
#695000
1"
1/
0%
10
1,
1$
#700000
1!
0"
1.
0/
1%
#710000
0!
0.
0%
00
0,
0$
#715000
1"
1/
1%
10
1,
1$
#725000
0"
0/
0%
00
0,
0$
#730000
1"
1/
1%
10
1,
1$
#740000
0"
0/
0%
00
0,
0$
#750000
1!
1.
1%
10
1,
1$
#755000
0!
0.
0%
00
0,
0$
#765000
1"
1/
1%
10
1,
1$
#770000
0"
0/
0%
00
0,
0$
#780000
1!
1"
1.
1/
1%
11
1-
1#
#790000
0!
0.
0%
01
10
1,
0-
1$
0#
#795000
1!
1.
1%
11
00
0,
1-
0$
1#
#800000
0!
0.
0%
01
10
1,
0-
1$
0#
#815000
0"
1!
0/
1.
1%
#820000
1"
0!
1/
0.
0%
#825000
0"
1!
0/
1.
1%
#835000
1"
0!
1/
0.
0%
#840000
1!
1.
1%
11
00
0,
1-
0$
1#
#845000
0!
0.
0%
01
10
1,
0-
1$
0#
#850000
0"
0/
1%
00
0,
0$
#855000
1!
1.
0%
10
1,
1$
#860000
1"
1/
1%
11
00
0,
1-
0$
1#
#865000
0!
0"
0.
0/
0%
01
0-
0#
#875000
1!
1.
1%
10
1,
1$
#880000
0!
0.
0%
00
0,
0$
#885000
1"
1!
1/
1.
1%
11
1-
1#
#890000
0"
0/
0%
01
10
1,
0-
1$
0#
#900000
1"
1/
1%
11
00
0,
1-
0$
1#
#910000
0"
0/
0%
01
10
1,
0-
1$
0#
#915000
1"
1/
1%
11
00
0,
1-
0$
1#
#925000
0!
0"
0.
0/
0%
01
0-
0#
#930000
1"
1/
1%
10
1,
1$
#935000
0"
0/
0%
00
0,
0$
#940000
1!
1"
1.
1/
1%
11
1-
1#
#945000
0"
0/
0%
01
10
1,
0-
1$
0#
#950000
0!
0.
1%
00
0,
0$
#955000
1"
1/
0%
10
1,
1$
#965000
0"
0/
1%
00
0,
0$
#970000
1!
1.
0%
10
1,
1$
#975000
1"
0!
1/
0.
1%
#980000
1!
1.
0%
11
00
0,
1-
0$
1#
#990000
0!
0.
1%
01
10
1,
0-
1$
0#
#995000
1!
1.
0%
11
00
0,
1-
0$
1#
