tutorial7/simulation/qsim/Half_Adder.msim.vcd
$comment
	File created using the following command:
		vcd file Half_Adder.msim.vcd -direction
$end
$date
	Thu Feb 11 09:14:27 2021
$end
$version
	ModelSim Version 10.3c
$end
$timescale
	1ps
$end

$scope module Half_Adder_vlg_vec_tst $end
$var reg 1 ! A $end
$var reg 1 " B $end
$var wire 1 # C $end
$var wire 1 $ S $end
$var wire 1 % sampler $end

$scope module i1 $end
$var wire 1 & gnd $end
$var wire 1 ' vcc $end
$var wire 1 ( unknown $end
$var tri1 1 ) devclrn $end
$var tri1 1 * devpor $end
$var tri1 1 + devoe $end
$var wire 1 , S~output_o $end
$var wire 1 - C~output_o $end
$var wire 1 . A~input_o $end
$var wire 1 / B~input_o $end
$var wire 1 0 inst~combout $end
$var wire 1 1 inst2~combout $end
$upscope $end
$upscope $end
$enddefinitions $end
#0
$dumpvars
0!
1"
0#
1$
x%
0&
1'
x(
1)
1*
1+
1,
0-
0.
1/
10
01
$end
#5000
1!
0"
1.
0/
0%
#10000
0!
0.
1%
00
0,
0$
#20000
1!
1.
0%
10
1,
1$
#30000
0!
0.
1%
00
0,
0$
#35000
1"
1!
1/
1.
0%
11
1-
1#
#40000
0!
0.
1%
01
10
1,
0-
1$
0#
#45000
1!
1.
0%
11
00
0,
1-
0$
1#
#50000
0"
0/
1%
01
10
1,
0-
1$
0#
#55000
0!
0.
0%
00
0,
0$
#60000
1"
1/
1%
10
1,
1$
#65000
0"
0/
0%
00
0,
0$
#70000
1!
1.
1%
10
1,
1$
#75000
1"
0!
1/
0.
0%
#90000
0"
1!
0/
1.
1%
#100000
1"
0!
1/
0.
0%
#110000
0"
1!
0/
1.
1%
#115000
1"
1/
0%
11
00
0,
1-
0$
1#
#120000
0"
0/
1%
01
10
1,
0-
1$
0#
#125000
0!
0.
0%
00
0,
0$
#130000
1!
1.
1%
10
1,
1$
#135000
1"
1/
0%
11
00
0,
1-
0$
1#
#145000
0"
0/
1%
01
10
1,
0-
1$
0#
#150000
1"
1/
0%
11
00
0,
1-
0$
1#
#155000
0"
0/
1%
01
10
1,
0-
1$
0#
#165000
0!
0.
0%
00
0,
0$
#170000
1!
1.
1%
10
1,
1$
#175000
0!
0.
0%
00
0,
0$
#180000
1!
1.
1%
10
1,
1$
#195000
1"
1/
0%
11
00
0,
1-
0$
1#
#200000
0!
0.
1%
01
10
1,
0-
1$
0#
#205000
0"
1!
0/
1.
0%
#210000
0!
0.
1%
00
0,
0$
#215000
1"
1!
1/
1.
0%
11
1-
1#
#220000
0"
0/
1%
01
10
1,
0-
1$
0#
#225000
0!
1"
0.
1/
0%
#230000
1!
0"
1.
0/
1%
#235000
1"
1/
0%
11
00
0,
1-
0$
1#
#245000
0!
0.
1%
01
10
1,
0-
1$
0#
#250000
0"
0/
0%
00
0,
0$
#255000
1!
1"
1.
1/
1%
11
1-
1#
#260000
0"
0/
0%
01
10
1,
0-
1$
0#
#265000
0!
0.
1%
00
0,
0$
#285000
1"
1/
0%
10
1,
1$
#290000
1!
0"
1.
0/
1%
#300000
1"
1/
0%
11
00
0,
1-
0$
1#
#305000
0!
0.
1%
01
10
1,
0-
1$
0#
#310000
0"
0/
0%
00
0,
0$
#315000
1!
1.
1%
10
1,
1$
#330000
1"
0!
1/
0.
0%
#335000
1!
1.
1%
11
00
0,
1-
0$
1#
#340000
0"
0!
0/
0.
0%
01
0-
0#
#345000
1"
1/
1%
10
1,
1$
#350000
1!
0"
1.
0/
0%
#355000
1"
1/
1%
11
00
0,
1-
0$
1#
#360000
0!
0.
0%
01
10
1,
0-
1$
0#
#365000
0"
0/
1%
00
0,
0$
#370000
1"
1/
0%
10
1,
1$
#375000
0"
0/
1%
00
0,
0$
#380000
1"
1/
0%
10
1,
1$
#385000
1!
0"
1.
0/
1%
#390000
1"
1/
0%
11
00
0,
1-
0$
1#
#395000
0!
0.
1%
01
10
1,
0-
1$
0#
#400000
0"
0/
0%
00
0,
0$
#405000
1!
1"
1.
1/
1%
11
1-
1#
#415000
0!
0.
0%
01
10
1,
0-
1$
0#
#420000
1!
1.
1%
11
00
0,
1-
0$
1#
#425000
0"
0!
0/
0.
0%
01
0-
0#
#430000
1"
1!
1/
1.
1%
11
1-
1#
#435000
0!
0.
0%
01
10
1,
0-
1$
0#
#445000
0"
1!
0/
1.
1%
#450000
1"
0!
1/
0.
0%
#455000
0"
1!
0/
1.
1%
#460000
1"
0!
1/
0.
0%
#470000
1!
1.
1%
11
00
0,
1-
0$
1#
#475000
0!
0.
0%
01
10
1,
0-
1$
0#
#485000
1!
1.
1%
11
00
0,
1-
0$
1#
#495000
0"
0!
0/
0.
0%
01
0-
0#
#500000
1"
1!
1/
1.
1%
11
1-
1#
#505000
0!
0.
0%
01
10
1,
0-
1$
0#
#510000
0"
1!
0/
1.
1%
#515000
1"
1/
0%
11
00
0,
1-
0$
1#
#530000
0!
0"
0.
0/
1%
01
0-
0#
#535000
1!
1"
1.
1/
0%
11
1-
1#
#540000
0!
0.
1%
01
10
1,
0-
1$
0#
#545000
1!
1.
0%
11
00
0,
1-
0$
1#
#550000
0"
0!
0/
0.
1%
01
0-
0#
#555000
1!
1.
0%
10
1,
1$
#560000
0!
0.
1%
00
0,
0$
#570000
1"
1/
0%
10
1,
1$
#575000
1!
0"
1.
0/
1%
#580000
1"
1/
0%
11
00
0,
1-
0$
1#
#585000
0"
0/
1%
01
10
1,
0-
1$
0#
#590000
0!
1"
0.
1/
0%
#595000
1!
1.
1%
11
00
0,
1-
0$
1#
#600000
0"
0!
0/
0.
0%
01
0-
0#
#610000
1!
1.
1%
10
1,
1$
#615000
1"
1/
0%
11
00
0,
1-
0$
1#
#635000
0!
0.
1%
01
10
1,
0-
1$
0#
#640000
0"
1!
0/
1.
0%
#645000
0!
0.
1%
00
0,
0$
#650000
1!
1.
0%
10
1,
1$
#655000
1"
1/
1%
11
00
0,
1-
0$
1#
#660000
0!
0.
0%
01
10
1,
0-
1$
0#
#665000
1!
1.
1%
11
00
0,
1-
0$
1#
#670000
0"
0/
0%
01
10
1,
0-
1$
0#
#675000
1"
1/
1%
11
00
0,
1-
0$
1#
#680000
0!
0.
0%
01
10
1,
0-
1$
0#
#685000
0"
1!
0/
1.
1%
#690000
1"
0!
1/
0.
0%
#695000
0"
1!
0/
1.
1%
#705000
1"
0!
1/
0.
0%
#715000
0"
0/
1%
00
0,
0$
#720000
1!
1"
1.
1/
0%
11
1-
1#
#735000
0!
0"
0.
0/
1%
01
0-
0#
#740000
1!
1"
1.
1/
0%
11
1-
1#
#745000
0!
0"
0.
0/
1%
01
0-
0#
#750000
1"
1/
0%
10
1,
1$
#755000
1!
0"
1.
0/
1%
#760000
0!
0.
0%
00
0,
0$
#775000
1"
1!
1/
1.
1%
11
1-
1#
#785000
0!
0.
0%
01
10
1,
0-
1$
0#
#790000
0"
0/
1%
00
0,
0$
#795000
1!
1.
0%
10
1,
1$
#800000
1"
0!
1/
0.
1%
#810000
0"
0/
0%
00
0,
0$
#820000
1!
1.
1%
10
1,
1$
#830000
0!
0.
0%
00
0,
0$
#835000
1!
1.
1%
10
1,
1$
#840000
1"
0!
1/
0.
0%
#845000
0"
1!
0/
1.
1%
#850000
1"
0!
1/
0.
0%
#855000
0"
0/
1%
00
0,
0$
#865000
1!
1.
0%
10
1,
1$
#870000
1"
0!
1/
0.
1%
#880000
1!
1.
0%
11
00
0,
1-
0$
1#
#885000
0!
0.
1%
01
10
1,
0-
1$
0#
#890000
0"
1!
0/
1.
0%
#895000
1"
1/
1%
11
00
0,
1-
0$
1#
#900000
0"
0/
0%
01
10
1,
0-
1$
0#
#905000
1"
1/
1%
11
00
0,
1-
0$
1#
#910000
0"
0/
0%
01
10
1,
0-
1$
0#
#915000
1"
1/
1%
11
00
0,
1-
0$
1#
#930000
0"
0/
0%
01
10
1,
0-
1$
0#
#935000
0!
0.
1%
00
0,
0$
#940000
1!
1.
0%
10
1,
1$
#950000
1"
1/
1%
11
00
0,
1-
0$
1#
#955000
0!
0"
0.
0/
0%
01
0-
0#
#970000
1!
1"
1.
1/
1%
11
1-
1#
#975000
0"
0/
0%
01
10
1,
0-
1$
0#
#980000
1"
1/
1%
11
00
0,
1-
0$
1#
#985000
0"
0/
0%
01
10
1,
0-
1$
0#
#990000
0!
1"
0.
1/
1%
#995000
0"
0/
0%
00
0,
0$
